{
  "extends": [
    "tslint:recommended"
  ],
  "rules": {
    "semicolon": [
      false, "always"
    ],
    "ordered-imports": [
      false
    ],
    "quotemark": [
      true,
      "single",
      "jsx-double",
      "avoid-escape"
    ],
    "object-literal-sort-keys": false,
    "member-access": [
      false
    ],
    "no-string-throw" : false,
    "member-ordering": [
      false
    ],
    "trailing-comma": [
      true,
      {
        "singleline": "never",
        "multiline": "never"
      }
    ],
    "no-empty": false,
    "no-submodule-imports": false,
    "no-implicit-dependencies": false,
    "no-constant-condition": false,
    "triple-equals": [
      true,
      "allow-undefined-check"
    ],
    "one-line": false,
    "no-duplicate-imports": false,
    "max-classes-per-file": false,
    "forin": false,
    "no-console": false,
    "one-variable-per-declaration": false,
    "arrow-parens": [true, "ban-single-arg-parens"],
    "typedef-whitespace": [
      true,
      {
        "property-declaration": "nospace"
      }
    ],
    "object-literal-key-quotes": [true, "as-needed"],
    "interface-name":false,
    "no-namespace": false,
    "no-internal-module": false
  }
}
